Tutorial • EchoPickList
…
The function map_exp takes the plate area definition,
and any vector of variables to include in your experiment. You have to
explicitly specify the random seed, for reproducible randomization.

map <- map_exp(cols, rows, Antibiotic, Concentration, Strain, Replicate, seed =34)

The resulting table contains all combinations of the elements of the
vector. A final column is added, with the list of wells randomly
selected from the area defined with rows and
cols

map
#> # A tibble: 90 × 5
#>    Antibiotic Concentration Strain Replicate Well 
#>    <chr>              <dbl> <chr>      <int> <chr>
#>  1 Amp                 0.5  tolC           1 G21  
#>  2 Amp                 0.5  tolC           2 G16  
#>  3 Amp                 0.5  tolC           3 G14  
#>  4 Amp                 0.5  WT             1 L3   
#>  5 Amp                 0.5  WT             2 D7   
#>  6 Amp                 0.5  WT             3 J3   
#>  7 Amp                 1.58 tolC           1 D10  
#>  8 Amp                 1.58 tolC           2 D18  
#>  9 Amp                 1.58 tolC           3 F11  
#> 10 Amp                 1.58 WT             1 G5   
#> # ℹ 80 more rows
…
The function picklist is intended to generate lists
ready to use with the Echo acoustic dispenser. It needs the destination
plate map, the source plate map, the volume to dispense and the
variable(s) by which to join the maps.

Let’s make a picklist to dispense the strains, setting 100 nL for all
of them

pl_s <- picklist(map, strns, #destination and source plate maps
                 100, #Volume to dispense
                 c("Strain", "Replicate"), #Variables to join maps by
                 src_plate_type = "Water") #Fluid type of the source plate
pl_s
#> # A tibble: 90 × 8
#>    SrcWell SrcPlateName SrcPlateType SampleName XferVol DestWell DestPlateName
#>    <chr>   <chr>        <chr>        <chr>        <dbl> <chr>    <chr>        
#>  1 A23     SrcPlateName 384PP_AQ_GP3 tolC 1         100 G21      DestPlateName
#>  2 B23     SrcPlateName 384PP_AQ_GP3 tolC 2         100 G16      DestPlateName
#>  3 C23     SrcPlateName 384PP_AQ_GP3 tolC 3         100 G14      DestPlateName
#>  4 D23     SrcPlateName 384PP_AQ_GP3 WT 1           100 L3       DestPlateName
#>  5 E23     SrcPlateName 384PP_AQ_GP3 WT 2           100 D7       DestPlateName
#>  6 F23     SrcPlateName 384PP_AQ_GP3 WT 3           100 J3       DestPlateName
#>  7 A23     SrcPlateName 384PP_AQ_GP3 tolC 1         100 D10      DestPlateName
#>  8 B23     SrcPlateName 384PP_AQ_GP3 tolC 2         100 D18      DestPlateName
#>  9 C23     SrcPlateName 384PP_AQ_GP3 tolC 3         100 F11      DestPlateName
#> 10 D23     SrcPlateName 384PP_AQ_GP3 WT 1           100 G5       DestPlateName
#> # ℹ 80 more rows
#> # ℹ 1 more variable: DestPlateBarcode <chr>
…
this function by default converts the volume to multiples of 2.5, and
removes any 0s.

Add back-fill volume

For a dose-response experiment with DMSO, you might want to back-fill
the wells to keep the concentration of DMSO constant.

Wells = paste0("P", c(1:3))#Define wells in your source plate with backfill volume
backfill(pl_ab, #Picklist to backfill
         Wells, #Wells in sourceplate to draw backfill fluid from
         backfill_fluid = "DMSO") #Sample Name of the backfill fluid
#> # A tibble: 72 × 8
#>    SrcWell SrcPlateName SrcPlateType SampleName XferVol DestWell DestPlateName
#>    <chr>   <chr>        <chr>        <chr>        <dbl> <chr>    <chr>        
#>  1 P1      SrcPlateName 384PP_AQ_GP3 DMSO          248. G21      DestPlateName
#>  2 P2      SrcPlateName 384PP_AQ_GP3 DMSO          248. G16      DestPlateName
#>  3 P3      SrcPlateName 384PP_AQ_GP3 DMSO          248. G14      DestPlateName
#>  4 P1      SrcPlateName 384PP_AQ_GP3 DMSO          248. L3       DestPlateName
#>  5 P2      SrcPlateName 384PP_AQ_GP3 DMSO          248. D7       DestPlateName
#>  6 P3      SrcPlateName 384PP_AQ_GP3 DMSO          248. J3       DestPlateName
#>  7 P1      SrcPlateName 384PP_AQ_GP3 DMSO          242. D10      DestPlateName
#>  8 P2      SrcPlateName 384PP_AQ_GP3 DMSO          242. D18      DestPlateName
#>  9 P3      SrcPlateName 384PP_AQ_GP3 DMSO          242. F11      DestPlateName
#> 10 P1      SrcPlateName 384PP_AQ_GP3 DMSO          242. G5       DestPlateName
#> # ℹ 62 more rows
#> # ℹ 1 more variable: DestPlateBarcode <chr>
…
Sometimes you want to add a control across only some levels of a
variable.

In this example, we should add a negative control, but it doesn’t
need to be at every Concentration.

The function add_ctrl takes a previously generated
experiment map, and specific values of the defined variables. It will
then shuffle the remaining empty wells in the plate with the
combinations of the variables you just defined, and the remaining
variables in the experiment that you didn’t specify.

add_ctrl(map, rows, cols, Antibiotic = c("Water", "DMSO"), Concentration = max(Concentration))
#> # A tibble: 102 × 5
#>    Strain Replicate Antibiotic Concentration Well 
#>    <chr>      <int> <chr>              <dbl> <chr>
#>  1 tolC           1 DMSO                  50 I12  
#>  2 tolC           1 Water                 50 I4   
#>  3 tolC           2 DMSO                  50 S14  
#>  4 tolC           2 Water                 50 P10  
#>  5 tolC           3 DMSO                  50 D14  
#>  6 tolC           3 Water                 50 O6   
#>  7 WT             1 DMSO                  50 T8   
#>  8 WT             1 Water                 50 P6   
#>  9 WT             2 DMSO                  50 T12  
#> 10 WT             2 Water                 50 C7   
#> # ℹ 92 more rows
…
Importing map from external sources

Sometimes you don’t want to randomize the position of every variable.
In that case, you might want to import an experiment design from
external sources.

You can design an experiment with a spreadsheet editor in a plate
matrix format, and use the package plater to import it as a
table. Check the documentation on that package for an explanation of the
format required, or look at the example plate:

filepath <- system.file("ordered_exp_map.csv", package = "EchoPickList")
map <- plater::read_plate(filepath)
map
#> # A tibble: 60 × 5
#>    Wells Antibiotic Ciprofloxacin Strain Volume
#>  * <chr> <chr>      <chr>         <chr>   <dbl>
#>  1 B02   Amp        Cipro         MG1655   5   
#>  2 B03   Amp        Cipro         MG1655   8.75
#>  3 B04   Amp        Cipro         MG1655  15.3 
#>  4 B05   Amp        Cipro         MG1655  26.8 
#>  5 B06   Amp        Cipro         MG1655  46.9 
#>  6 B07   Amp        Cipro         MG1655  82.1 
#>  7 B08   Amp        Cipro         MG1655 144.  
#>  8 B09   Amp        Cipro         MG1655 251.  
#>  9 B10   Amp        Cipro         MG1655 440.  
#> 10 B11   Amp        Cipro         MG1655 770.  
#> # ℹ 50 more rows
…
In order to pass it to picklist, you need to

- Rename the “Wells” column to “Well”

- Remove the padding 0s from the well-name format

The functions pad_well and unpad_well are
used to switch between well-name formats

map <- map %>%
    mutate(Well = unpad_well(Wells)) %>% #Create a new column called "Well"
    select(!Wells) #Remove the original "Wells" column

picklist(map, abs, "Volume", "Antibiotic")
#> # A tibble: 60 × 8
#>    SrcWell SrcPlateName SrcPlateType SampleName XferVol DestWell DestPlateName
#>    <chr>   <chr>        <chr>        <chr>        <dbl> <chr>    <chr>        
#>  1 A2      SrcPlateName 384PP_DMSO2  Amp            5   B2       DestPlateName
#>  2 A2      SrcPlateName 384PP_DMSO2  Amp           10   B3       DestPlateName
#>  3 A2      SrcPlateName 384PP_DMSO2  Amp           15   B4       DestPlateName
#>  4 A2      SrcPlateName 384PP_DMSO2  Amp           27.5 B5       DestPlateName
#>  5 A2      SrcPlateName 384PP_DMSO2  Amp           47.5 B6       DestPlateName
#>  6 A2      SrcPlateName 384PP_DMSO2  Amp           82.5 B7       DestPlateName
#>  7 A2      SrcPlateName 384PP_DMSO2  Amp          142.  B8       DestPlateName
#>  8 A2      SrcPlateName 384PP_DMSO2  Amp          252.  B9       DestPlateName
#>  9 A2      SrcPlateName 384PP_DMSO2  Amp          440   B10      DestPlateName
#> 10 A2      SrcPlateName 384PP_DMSO2  Amp          770   B11      DestPlateName
#> # ℹ 50 more rows
#> # ℹ 1 more variable: DestPlateBarcode <chr>
…
